{
    "emptySaveAs": [{
            "index": {
                "Components": [{
                        "Type": "Paragraph",
                        "Size": "",
                        "Text": "",
                        "Font": "Economica"
                    }, {
                        "Type": "Image",
                        "ImagePath": "BluAnimated.gif",
                        "Height": "",
                        "Postition": "center",
                        "Width": "",
                        "Caption": ""
                    }, {
                        "Type": "Image",
                        "ImagePath": "BryceCanyonUtah.jpg",
                        "Height": "",
                        "Postition": "center",
                        "Width": "",
                        "Caption": ""
                    }, {
                        "Type": "Image",
                        "ImagePath": "purpleWizard.png",
                        "Height": "",
                        "Postition": "center",
                        "Width": "",
                        "Caption": ""
                    }],
                "Layout": "Article",
                "FooterTxt": "<p><\/p>",
                "BannerImage": "BadlandsSouthDakota.jpg",
                "Color": "Albany",
                "StudentName": "Jacon",
                "Font": "Economica"
            }
        }, {
            "Page 1": {
                "Components": [{
                        "Type": "SlideShow",
                        "SlideShowFile": "SlideShow.json"
                    }, {
                        "Type": "Video",
                        "VideoPath": "small.mp4",
                        "Height": "",
                        "Width": "",
                        "Caption": ""
                    }],
                "Layout": "Article",
                "FooterTxt": "<p><\/p>",
                "BannerImage": "",
                "Color": "Albany",
                "StudentName": "Jacon",
                "Font": "Economica"
            }
        }]
}